simulation/tb_spi_test.vcd
$date
	Sat Dec 04 18:23:44 2021
$end
$version
	Icarus Verilog
$end
$timescale
	100fs
$end
$scope module tb_spi_test $end
$var wire 1 ! MISO $end
$var reg 1 " CLK $end
$var reg 1 # MOSI $end
$var reg 16 $ RD [15:0] $end
$var reg 1 % SCLK $end
$var reg 1 & SS $end
$var reg 1 ' XRES $end
$var reg 16 ( in_data [15:0] $end
$var reg 16 ) rdata [15:0] $end
$var integer 32 * err [31:0] $end
$var integer 32 + x [31:0] $end
$scope module u_adc_top $end
$var wire 1 " CLK_IN $end
$var wire 1 ! MISO $end
$var wire 1 # MOSI $end
$var wire 1 % SCLK $end
$var wire 1 & SS $end
$var wire 1 ' XRES_IN $end
$var wire 1 , soc $end
$var wire 1 - miso_o $end
$var wire 1 . eoc $end
$var wire 12 / dout [11:0] $end
$var reg 1 0 clk2 $end
$scope module u_adc_core $end
$var wire 1 0 clk $end
$var wire 1 1 pd $end
$var wire 3 2 s [2:0] $end
$var wire 1 , soc $end
$var wire 1 . eoc $end
$var wire 12 3 dout [11:0] $end
$scope module adc $end
$var wire 1 0 clk $end
$var wire 1 4 done_gwe $end
$var wire 1 . eoc $end
$var wire 1 1 pd $end
$var wire 3 5 s [2:0] $end
$var wire 1 , soc $end
$var wire 1 6 eoc_tmp $end
$var wire 12 7 dout_tmp [11:0] $end
$var wire 12 8 dout [11:0] $end
$scope module udt $end
$var wire 8 9 CH [7:0] $end
$var wire 1 0 CLK $end
$var wire 1 : CLKi $end
$var wire 1 6 EOC $end
$var wire 1 1 PD $end
$var wire 1 ; PDi $end
$var wire 3 < S [2:0] $end
$var wire 1 = SOCi $end
$var wire 1 > VDDA $end
$var wire 1 ? VREF $end
$var wire 1 @ VREFi $end
$var wire 1 A VSSA $end
$var wire 1 B unknown $end
$var wire 3 C Si [2:0] $end
$var wire 1 , SOC $end
$var wire 1 D EOCi $end
$var wire 8 E CHi [7:0] $end
$var wire 12 F Bi [11:0] $end
$var wire 12 G B [11:0] $end
$var reg 5 H counter [4:0] $end
$var reg 1 I err_TCLK $end
$var reg 1 J err_TH $end
$var reg 1 K err_TS $end
$var reg 1 L notify_TCLK $end
$var reg 1 M notify_TH $end
$var reg 1 N notify_TS $end
$var reg 12 O reg_B [11:0] $end
$var reg 1 P reg_EOC $end
$var reg 12 Q sample_B [11:0] $end
$upscope $end
$upscope $end
$upscope $end
$scope module u_spi $end
$var wire 12 R adc_data [11:0] $end
$var wire 1 , adc_soc $end
$var wire 1 0 clk $end
$var wire 1 % sclk $end
$var wire 1 S sclk_fall $end
$var wire 1 T spi_load_en $end
$var wire 1 U spi_shift_en $end
$var wire 1 & ss $end
$var wire 1 V ss_fall $end
$var wire 1 ' xres $end
$var wire 1 - miso $end
$var reg 12 W obuf [11:0] $end
$var reg 3 X sclk_dly [2:0] $end
$var reg 3 Y ss_dly [2:0] $end
$var reg 4 Z st_spi [3:0] $end
$upscope $end
$upscope $end
$scope task spi_write $end
$var reg 16 [ data [15:0] $end
$var integer 32 \ i [31:0] $end
$upscope $end
$upscope $end
$enddefinitions $end
#0
$dumpvars
bx \
bx [
b0 Z
b0 Y
b0 X
b0 W
0V
0U
0T
0S
bx R
bx Q
xP
bx O
0N
0M
0L
0K
0J
0I
b0 H
bx G
bx F
b11111111 E
xD
b0 C
0B
0A
1@
1?
1>
0=
b0 <
0;
0:
b11111111 9
bx 8
bx 7
x6
b0 5
04
bx 3
b0 2
01
00
bx /
x.
0-
0,
b0 +
b0 *
bx )
bx (
0'
x&
x%
bx $
x#
1"
x!
$end
#100000
14
#200000
0"
#400000
1"
#600000
0"
#800000
1"
#1000000
0"
1'
#1200000
0.
06
0D
0P
b0x X
b0x Y
1:
10
1"
#1400000
0"
#1600000
0:
00
1"
#1800000
0"
#2000000
b0x1 Y
b0x0 X
1:
10
1"
0%
z!
1&
b101010101010101 [
b1 Q
b1 (
#2200000
0"
#2400000
0:
00
1"
#2600000
0"
#2800000
xU
xS
bx00 X
bx11 Y
1:
10
1"
#3000000
0"
#3200000
0:
00
1"
#3400000
0"
#3600000
0U
0S
b111 Y
b0 X
1:
10
1"
#3800000
0"
#4000000
0:
00
1"
#4200000
0"
#4400000
1:
10
1"
#4500000
1#
0!
0&
#4600000
0"
#4800000
0:
00
1"
#5000000
0"
#5200000
b110 Y
1:
10
1"
#5400000
0"
#5600000
0:
00
1"
#5800000
0"
#6000000
1=
1,
1V
b100 Y
1:
10
1"
#6200000
0"
#6400000
0:
00
1"
#6600000
0"
#6800000
0=
0,
0V
b1 H
b0 Y
1:
10
1"
#7000000
0"
b0 \
#7200000
0:
00
1"
#7400000
0"
#7600000
b10 H
1:
10
1"
#7800000
0"
#8000000
0:
00
1"
#8200000
0"
#8400000
b11 H
1:
10
1"
#8600000
0"
#8800000
0:
00
1"
#9000000
0"
#9200000
b100 H
1:
10
1"
#9400000
0"
#9500000
bx0 )
1%
#9600000
0:
00
1"
#9800000
0"
#10000000
b101 H
b1 Q
b1 X
1:
10
1"
#10200000
0"
#10400000
0:
00
1"
#10600000
0"
#10800000
b110 H
b11 X
1:
10
1"
#11000000
0"
#11200000
0:
00
1"
#11400000
0"
#11600000
b111 H
b111 X
1:
10
1"
#11800000
0"
#12000000
0:
00
1"
0%
0#
b1 \
#12200000
0"
#12400000
b1000 H
b110 X
1:
10
1"
#12600000
0"
#12800000
0:
00
1"
#13000000
0"
#13200000
1U
1S
b1001 H
b100 X
1:
10
1"
#13400000
0"
#13600000
0:
00
1"
#13800000
0"
#14000000
0U
0S
b1010 H
b1 Z
b0 X
1:
10
1"
#14200000
0"
#14400000
0:
00
1"
#14500000
bx00 )
1%
#14600000
0"
#14800000
b1011 H
b1 X
1:
10
1"
#15000000
0"
#15200000
0:
00
1"
#15400000
0"
#15600000
b1100 H
b11 X
1:
10
1"
#15800000
0"
#16000000
0:
00
1"
#16200000
0"
#16400000
b1101 H
b111 X
1:
10
1"
#16600000
0"
#16800000
0:
00
1"
#17000000
0"
0%
1#
b10 \
#17200000
b1110 H
b110 X
1:
10
1"
#17400000
0"
#17600000
0:
00
1"
#17800000
0"
#18000000
1U
1S
b1111 H
b100 X
1:
10
1"
#18200000
0"
#18400000
0:
00
1"
#18600000
0"
#18800000
0U
0S
b10000 H
b10 Z
b0 X
1:
10
1"
#19000000
0"
#19200000
0:
00
1"
#19400000
0"
#19500000
bx000 )
1%
#19600000
b1 /
b1 3
b1 8
b1 R
b1 7
b1 G
1.
16
b1 F
1D
b0 H
b1 O
1P
b1 X
1:
10
1"
#19800000
0"
#20000000
0:
00
1"
#20200000
0"
#20400000
0.
06
0D
0P
b11 X
1:
10
1"
#20600000
0"
#20800000
0:
00
1"
#21000000
0"
#21200000
b111 X
1:
10
1"
#21400000
0"
#21600000
0:
00
1"
#21800000
0"
#22000000
b110 X
1:
10
1"
0%
0#
b11 \
#22200000
0"
#22400000
0:
00
1"
#22600000
0"
#22800000
1U
1S
b100 X
1:
10
1"
#23000000
0"
#23200000
0:
00
1"
#23400000
0"
#23600000
0S
0T
0U
b11 Z
b0 X
1:
10
1"
#23800000
0"
#24000000
0:
00
1"
#24200000
0"
#24400000
1:
10
1"
#24500000
bx0000 )
1%
#24600000
0"
#24800000
0:
00
1"
#25000000
0"
#25200000
b1 X
1:
10
1"
#25400000
0"
#25600000
0:
00
1"
#25800000
0"
#26000000
b11 X
1:
10
1"
#26200000
0"
#26400000
0:
00
1"
#26600000
0"
#26800000
b111 X
1:
10
1"
#27000000
0"
0%
1#
b100 \
#27200000
0:
00
1"
#27400000
0"
#27600000
b110 X
1:
10
1"
#27800000
0"
#28000000
0:
00
1"
#28200000
0"
#28400000
1T
1S
b100 X
1:
10
1"
#28600000
0"
#28800000
0:
00
1"
#29000000
0"
#29200000
0S
0T
0U
b0 X
b100 Z
b1 W
1:
10
1"
#29400000
0"
#29500000
bx00000 )
1%
#29600000
0:
00
1"
#29800000
0"
#30000000
b1 X
1:
10
1"
#30200000
0"
#30400000
0:
00
1"
#30600000
0"
#30800000
b11 X
1:
10
1"
#31000000
0"
#31200000
0:
00
1"
#31400000
0"
#31600000
b111 X
1:
10
1"
#31800000
0"
#32000000
0:
00
1"
0%
0#
b101 \
#32200000
0"
#32400000
b110 X
1:
10
1"
#32600000
0"
#32800000
0:
00
1"
#33000000
0"
#33200000
1U
1S
b100 X
1:
10
1"
#33400000
0"
#33600000
0:
00
1"
#33800000
0"
#34000000
0U
0S
b0 X
b101 Z
b10 W
1:
10
1"
#34200000
0"
#34400000
0:
00
1"
#34500000
bx000000 )
1%
#34600000
0"
#34800000
b1 X
1:
10
1"
#35000000
0"
#35200000
0:
00
1"
#35400000
0"
#35600000
b11 X
1:
10
1"
#35800000
0"
#36000000
0:
00
1"
#36200000
0"
#36400000
b111 X
1:
10
1"
#36600000
0"
#36800000
0:
00
1"
#37000000
0"
0%
1#
b110 \
#37200000
b110 X
1:
10
1"
#37400000
0"
#37600000
0:
00
1"
#37800000
0"
#38000000
1U
1S
b100 X
1:
10
1"
#38200000
0"
#38400000
0:
00
1"
#38600000
0"
#38800000
0U
0S
b0 X
b110 Z
b100 W
1:
10
1"
#39000000
0"
#39200000
0:
00
1"
#39400000
0"
#39500000
bx0000000 )
1%
#39600000
b1 X
1:
10
1"
#39800000
0"
#40000000
0:
00
1"
#40200000
0"
#40400000
b11 X
1:
10
1"
#40600000
0"
#40800000
0:
00
1"
#41000000
0"
#41200000
b111 X
1:
10
1"
#41400000
0"
#41600000
0:
00
1"
#41800000
0"
#42000000
b110 X
1:
10
1"
0%
0#
b111 \
#42200000
0"
#42400000
0:
00
1"
#42600000
0"
#42800000
1U
1S
b100 X
1:
10
1"
#43000000
0"
#43200000
0:
00
1"
#43400000
0"
#43600000
0U
0S
b0 X
b111 Z
b1000 W
1:
10
1"
#43800000
0"
#44000000
0:
00
1"
#44200000
0"
#44400000
1:
10
1"
#44500000
bx00000000 )
1%
#44600000
0"
#44800000
0:
00
1"
#45000000
0"
#45200000
b1 X
1:
10
1"
#45400000
0"
#45600000
0:
00
1"
#45800000
0"
#46000000
b11 X
1:
10
1"
#46200000
0"
#46400000
0:
00
1"
#46600000
0"
#46800000
b111 X
1:
10
1"
#47000000
0"
0%
1#
b1000 \
#47200000
0:
00
1"
#47400000
0"
#47600000
b110 X
1:
10
1"
#47800000
0"
#48000000
0:
00
1"
#48200000
0"
#48400000
1U
1S
b100 X
1:
10
1"
#48600000
0"
#48800000
0:
00
1"
#49000000
0"
#49200000
0U
0S
b10000 W
b1000 Z
b0 X
1:
10
1"
#49400000
0"
#49500000
bx000000000 )
1%
#49600000
0:
00
1"
#49800000
0"
#50000000
b1 X
1:
10
1"
#50200000
0"
#50400000
0:
00
1"
#50600000
0"
#50800000
b11 X
1:
10
1"
#51000000
0"
#51200000
0:
00
1"
#51400000
0"
#51600000
b111 X
1:
10
1"
#51800000
0"
#52000000
0:
00
1"
0%
0#
b1001 \
#52200000
0"
#52400000
b110 X
1:
10
1"
#52600000
0"
#52800000
0:
00
1"
#53000000
0"
#53200000
1U
1S
b100 X
1:
10
1"
#53400000
0"
#53600000
0:
00
1"
#53800000
0"
#54000000
0U
0S
b100000 W
b1001 Z
b0 X
1:
10
1"
#54200000
0"
#54400000
0:
00
1"
#54500000
bx0000000000 )
1%
#54600000
0"
#54800000
b1 X
1:
10
1"
#55000000
0"
#55200000
0:
00
1"
#55400000
0"
#55600000
b11 X
1:
10
1"
#55800000
0"
#56000000
0:
00
1"
#56200000
0"
#56400000
b111 X
1:
10
1"
#56600000
0"
#56800000
0:
00
1"
#57000000
0"
0%
1#
b1010 \
#57200000
b110 X
1:
10
1"
#57400000
0"
#57600000
0:
00
1"
#57800000
0"
#58000000
1U
1S
b100 X
1:
10
1"
#58200000
0"
#58400000
0:
00
1"
#58600000
0"
#58800000
0U
0S
b1000000 W
b1010 Z
b0 X
1:
10
1"
#59000000
0"
#59200000
0:
00
1"
#59400000
0"
#59500000
bx00000000000 )
1%
#59600000
b1 X
1:
10
1"
#59800000
0"
#60000000
0:
00
1"
#60200000
0"
#60400000
b11 X
1:
10
1"
#60600000
0"
#60800000
0:
00
1"
#61000000
0"
#61200000
b111 X
1:
10
1"
#61400000
0"
#61600000
0:
00
1"
#61800000
0"
#62000000
b110 X
1:
10
1"
0%
0#
b1011 \
#62200000
0"
#62400000
0:
00
1"
#62600000
0"
#62800000
1U
1S
b100 X
1:
10
1"
#63000000
0"
#63200000
0:
00
1"
#63400000
0"
#63600000
0U
0S
b10000000 W
b1011 Z
b0 X
1:
10
1"
#63800000
0"
#64000000
0:
00
1"
#64200000
0"
#64400000
1:
10
1"
#64500000
bx000000000000 )
1%
#64600000
0"
#64800000
0:
00
1"
#65000000
0"
#65200000
b1 X
1:
10
1"
#65400000
0"
#65600000
0:
00
1"
#65800000
0"
#66000000
b11 X
1:
10
1"
#66200000
0"
#66400000
0:
00
1"
#66600000
0"
#66800000
b111 X
1:
10
1"
#67000000
0"
0%
1#
b1100 \
#67200000
0:
00
1"
#67400000
0"
#67600000
b110 X
1:
10
1"
#67800000
0"
#68000000
0:
00
1"
#68200000
0"
#68400000
1U
1S
b100 X
1:
10
1"
#68600000
0"
#68800000
0:
00
1"
#69000000
0"
#69200000
0U
0S
b0 X
b1100 Z
b100000000 W
1:
10
1"
#69400000
0"
#69500000
bx0000000000000 )
1%
#69600000
0:
00
1"
#69800000
0"
#70000000
b1 X
1:
10
1"
#70200000
0"
#70400000
0:
00
1"
#70600000
0"
#70800000
b11 X
1:
10
1"
#71000000
0"
#71200000
0:
00
1"
#71400000
0"
#71600000
b111 X
1:
10
1"
#71800000
0"
#72000000
0:
00
1"
0%
0#
b1101 \
#72200000
0"
#72400000
b110 X
1:
10
1"
#72600000
0"
#72800000
0:
00
1"
#73000000
0"
#73200000
1U
1S
b100 X
1:
10
1"
#73400000
0"
#73600000
0:
00
1"
#73800000
0"
#74000000
0U
0S
b0 X
b1101 Z
b1000000000 W
1:
10
1"
#74200000
0"
#74400000
0:
00
1"
#74500000
bx00000000000000 )
1%
#74600000
0"
#74800000
b1 X
1:
10
1"
#75000000
0"
#75200000
0:
00
1"
#75400000
0"
#75600000
b11 X
1:
10
1"
#75800000
0"
#76000000
0:
00
1"
#76200000
0"
#76400000
b111 X
1:
10
1"
#76600000
0"
#76800000
0:
00
1"
#77000000
0"
0%
1#
b1110 \
#77200000
b110 X
1:
10
1"
#77400000
0"
#77600000
0:
00
1"
#77800000
0"
#78000000
1U
1S
b100 X
1:
10
1"
#78200000
0"
#78400000
0:
00
1"
#78600000
0"
#78800000
0U
0S
b0 X
b1110 Z
b10000000000 W
1:
10
1"
#79000000
0"
#79200000
0:
00
1"
#79400000
0"
#79500000
bx000000000000000 )
1%
#79600000
b1 X
1:
10
1"
#79800000
0"
#80000000
0:
00
1"
#80200000
0"
#80400000
b11 X
1:
10
1"
#80600000
0"
#80800000
0:
00
1"
#81000000
0"
#81200000
b111 X
1:
10
1"
#81400000
0"
#81600000
0:
00
1"
#81800000
0"
#82000000
b110 X
1:
10
1"
0%
0#
b1111 \
#82200000
0"
#82400000
0:
00
1"
#82600000
0"
#82800000
1U
1S
b100 X
1:
10
1"
#83000000
0"
#83200000
0:
00
1"
#83400000
0"
#83600000
0U
0S
1!
1-
b0 X
b1111 Z
b100000000000 W
1:
10
1"
#83800000
0"
#84000000
0:
00
1"
#84200000
0"
#84400000
1:
10
1"
#84500000
b1 )
1%
#84600000
0"
#84800000
0:
00
1"
#85000000
0"
#85200000
b1 X
1:
10
1"
#85400000
0"
#85600000
0:
00
1"
#85800000
0"
#86000000
b11 X
1:
10
1"
#86200000
0"
#86400000
0:
00
1"
#86600000
0"
#86800000
b111 X
1:
10
1"
#87000000
0"
0%
b10000 \
#87200000
0:
00
1"
#87400000
0"
#87600000
b110 X
1:
10
1"
#87800000
0"
#88000000
0:
00
1"
#88200000
0"
#88400000
1U
1S
b100 X
1:
10
1"
#88600000
0"
#88800000
0:
00
1"
#89000000
0"
#89200000
0U
0S
0!
0-
b0 W
b0 Z
b0 X
1:
10
1"
#89400000
0"
#89500000
b1 $
z!
1&
#89600000
0:
00
1"
#89800000
0"
#90000000
b1 Y
1:
10
1"
#90200000
0"
#90400000
0:
00
1"
#90600000
0"
#90800000
b11 Y
1:
10
1"
#91000000
0"
#91200000
0:
00
1"
#91400000
0"
#91600000
b111 Y
1:
10
1"
#91800000
0"
#92000000
0:
00
1"
#92200000
0"
#92400000
1:
10
1"
#92600000
0"
#92800000
0:
00
1"
#93000000
0"
#93200000
1:
10
1"
#93400000
0"
#93600000
0:
00
1"
#93800000
0"
#94000000
1:
10
1"
#94200000
0"
#94400000
0:
00
1"
#94600000
0"
#94800000
1:
10
1"
#95000000
0"
#95200000
0:
00
1"
#95400000
0"
#95600000
1:
10
1"
#95800000
0"
#96000000
0:
00
1"
#96200000
0"
#96400000
1:
10
1"
#96600000
0"
#96800000
0:
00
1"
#97000000
0"
#97200000
1:
10
1"
#97400000
0"
#97600000
0:
00
1"
#97800000
0"
#98000000
1:
10
1"
#98200000
0"
#98400000
0:
00
1"
#98600000
0"
#98800000
1:
10
1"
#99000000
0"
#99200000
0:
00
1"
#99400000
0"
#99500000
b10 Q
b10 (
b1 +
#99600000
1:
10
1"
#99800000
0"
#100000000
0:
00
1"
#100200000
0"
#100400000
1:
10
1"
#100600000
0"
#100800000
0:
00
1"
#101000000
0"
#101200000
1:
10
1"
#101400000
0"
#101600000
0:
00
1"
#101800000
0"
#102000000
b110 Y
1:
10
1"
1#
0!
0&
#102200000
0"
#102400000
0:
00
1"
#102600000
0"
#102800000
1=
1,
1V
b100 Y
1:
10
1"
#103000000
0"
#103200000
0:
00
1"
#103400000
0"
#103600000
0=
0,
0V
b1 H
b0 Y
1:
10
1"
#103800000
0"
#104000000
0:
00
1"
#104200000
0"
#104400000
b10 H
1:
10
1"
#104500000
b0 \
#104600000
0"
#104800000
0:
00
1"
#105000000
0"
#105200000
b11 H
1:
10
1"
#105400000
0"
#105600000
0:
00
1"
#105800000
0"
#106000000
b100 H
1:
10
1"
#106200000
0"
#106400000
0:
00
1"
#106600000
0"
#106800000
b101 H
1:
10
1"
#107000000
b10 )
0"
1%
#107200000
0:
00
1"
#107400000
0"
#107600000
b110 H
b1 X
1:
10
1"
#107800000
0"
#108000000
0:
00
1"
#108200000
0"
#108400000
b111 H
b11 X
1:
10
1"
#108600000
0"
#108800000
0:
00
1"
#109000000
0"
#109200000
b1000 H
b111 X
1:
10
1"
#109400000
0"
#109500000
0%
0#
b1 \
#109600000
0:
00
1"
#109800000
0"
#110000000
b1001 H
b110 X
1:
10
1"
#110200000
0"
#110400000
0:
00
1"
#110600000
0"
#110800000
1U
1S
b1010 H
b100 X
1:
10
1"
#111000000
0"
#111200000
0:
00
1"
#111400000
0"
#111600000
0U
0S
b1011 H
b1 Z
b0 X
1:
10
1"
#111800000
0"
#112000000
0:
00
b100 )
1"
1%
#112200000
0"
#112400000
b1100 H
b1 X
1:
10
1"
#112600000
0"
#112800000
0:
00
1"
#113000000
0"
#113200000
b1101 H
b11 X
1:
10
1"
#113400000
0"
#113600000
0:
00
1"
#113800000
0"
#114000000
b1110 H
b111 X
1:
10
1"
#114200000
0"
#114400000
0:
00
1"
#114500000
0%
1#
b10 \
#114600000
0"
#114800000
b1111 H
b110 X
1:
10
1"
#115000000
0"
#115200000
0:
00
1"
#115400000
0"
#115600000
1U
1S
b10000 H
b100 X
1:
10
1"
#115800000
0"
#116000000
0:
00
1"
#116200000
0"
#116400000
b10 /
b10 3
b10 8
b10 R
b10 7
b10 G
1.
16
0U
b10 F
1D
0S
b10 O
1P
b0 H
b10 Z
b0 X
1:
10
1"
#116600000
0"
#116800000
0:
00
1"
#117000000
b1000 )
0"
1%
#117200000
0.
06
0D
0P
b1 X
1:
10
1"
#117400000
0"
#117600000
0:
00
1"
#117800000
0"
#118000000
b11 X
1:
10
1"
#118200000
0"
#118400000
0:
00
1"
#118600000
0"
#118800000
b111 X
1:
10
1"
#119000000
0"
#119200000
0:
00
1"
#119400000
0"
#119500000
0%
0#
b11 \
#119600000
b110 X
1:
10
1"
#119800000
0"
#120000000
0:
00
1"
#120200000
0"
#120400000
1U
1S
b100 X
1:
10
1"
#120600000
0"
#120800000
0:
00
1"
#121000000
0"
#121200000
0S
0T
0U
b11 Z
b0 X
1:
10
1"
#121400000
0"
#121600000
0:
00
1"
#121800000
0"
#122000000
b1 X
1:
10
b10000 )
1"
1%
#122200000
0"
#122400000
0:
00
1"
#122600000
0"
#122800000
b11 X
1:
10
1"
#123000000
0"
#123200000
0:
00
1"
#123400000
0"
#123600000
b111 X
1:
10
1"
#123800000
0"
#124000000
0:
00
1"
#124200000
0"
#124400000
1:
10
1"
#124500000
0%
1#
b100 \
#124600000
0"
#124800000
0:
00
1"
#125000000
0"
#125200000
b110 X
1:
10
1"
#125400000
0"
#125600000
0:
00
1"
#125800000
0"
#126000000
1T
1S
b100 X
1:
10
1"
#126200000
0"
#126400000
0:
00
1"
#126600000
0"
#126800000
0S
0T
0U
b0 X
b100 Z
b10 W
1:
10
1"
#127000000
b100000 )
0"
1%
#127200000
0:
00
1"
#127400000
0"
#127600000
b1 X
1:
10
1"
#127800000
0"
#128000000
0:
00
1"
#128200000
0"
#128400000
b11 X
1:
10
1"
#128600000
0"
#128800000
0:
00
1"
#129000000
0"
#129200000
b111 X
1:
10
1"
#129400000
0"
#129500000
0%
0#
b101 \
#129600000
0:
00
1"
#129800000
0"
#130000000
b110 X
1:
10
1"
#130200000
0"
#130400000
0:
00
1"
#130600000
0"
#130800000
1U
1S
b100 X
1:
10
1"
#131000000
0"
#131200000
0:
00
1"
#131400000
0"
#131600000
0U
0S
b0 X
b101 Z
b100 W
1:
10
1"
#131800000
0"
#132000000
0:
00
b1000000 )
1"
1%
#132200000
0"
#132400000
b1 X
1:
10
1"
#132600000
0"
#132800000
0:
00
1"
#133000000
0"
#133200000
b11 X
1:
10
1"
#133400000
0"
#133600000
0:
00
1"
#133800000
0"
#134000000
b111 X
1:
10
1"
#134200000
0"
#134400000
0:
00
1"
#134500000
0%
1#
b110 \
#134600000
0"
#134800000
b110 X
1:
10
1"
#135000000
0"
#135200000
0:
00
1"
#135400000
0"
#135600000
1U
1S
b100 X
1:
10
1"
#135800000
0"
#136000000
0:
00
1"
#136200000
0"
#136400000
0U
0S
b0 X
b110 Z
b1000 W
1:
10
1"
#136600000
0"
#136800000
0:
00
1"
#137000000
b10000000 )
0"
1%
#137200000
b1 X
1:
10
1"
#137400000
0"
#137600000
0:
00
1"
#137800000
0"
#138000000
b11 X
1:
10
1"
#138200000
0"
#138400000
0:
00
1"
#138600000
0"
#138800000
b111 X
1:
10
1"
#139000000
0"
#139200000
0:
00
1"
#139400000
0"
#139500000
0%
0#
b111 \
#139600000
b110 X
1:
10
1"
#139800000
0"
#140000000
0:
00
1"
#140200000
0"
#140400000
1U
1S
b100 X
1:
10
1"
#140600000
0"
#140800000
0:
00
1"
#141000000
0"
#141200000
0U
0S
b0 X
b111 Z
b10000 W
1:
10
1"
#141400000
0"
#141600000
0:
00
1"
#141800000
0"
#142000000
b1 X
1:
10
b100000000 )
1"
1%
#142200000
0"
#142400000
0:
00
1"
#142600000
0"
#142800000
b11 X
1:
10
1"
#143000000
0"
#143200000
0:
00
1"
#143400000
0"
#143600000
b111 X
1:
10
1"
#143800000
0"
#144000000
0:
00
1"
#144200000
0"
#144400000
1:
10
1"
#144500000
0%
1#
b1000 \
#144600000
0"
#144800000
0:
00
1"
#145000000
0"
#145200000
b110 X
1:
10
1"
#145400000
0"
#145600000
0:
00
1"
#145800000
0"
#146000000
1U
1S
b100 X
1:
10
1"
#146200000
0"
#146400000
0:
00
1"
#146600000
0"
#146800000
0U
0S
b100000 W
b1000 Z
b0 X
1:
10
1"
#147000000
b1000000000 )
0"
1%
#147200000
0:
00
1"
#147400000
0"
#147600000
b1 X
1:
10
1"
#147800000
0"
#148000000
0:
00
1"
#148200000
0"
#148400000
b11 X
1:
10
1"
#148600000
0"
#148800000
0:
00
1"
#149000000
0"
#149200000
b111 X
1:
10
1"
#149400000
0"
#149500000
0%
0#
b1001 \
#149600000
0:
00
1"
#149800000
0"
#150000000
b110 X
1:
10
1"
#150200000
0"
#150400000
0:
00
1"
#150600000
0"
#150800000
1U
1S
b100 X
1:
10
1"
#151000000
0"
#151200000
0:
00
1"
#151400000
0"
#151600000
0U
0S
b1000000 W
b1001 Z
b0 X
1:
10
1"
#151800000
0"
#152000000
0:
00
b10000000000 )
1"
1%
#152200000
0"
#152400000
b1 X
1:
10
1"
#152600000
0"
#152800000
0:
00
1"
#153000000
0"
#153200000
b11 X
1:
10
1"
#153400000
0"
#153600000
0:
00
1"
#153800000
0"
#154000000
b111 X
1:
10
1"
#154200000
0"
#154400000
0:
00
1"
#154500000
0%
1#
b1010 \
#154600000
0"
#154800000
b110 X
1:
10
1"
#155000000
0"
#155200000
0:
00
1"
#155400000
0"
#155600000
1U
1S
b100 X
1:
10
1"
#155800000
0"
#156000000
0:
00
1"
#156200000
0"
#156400000
0U
0S
b10000000 W
b1010 Z
b0 X
1:
10
1"
#156600000
0"
#156800000
0:
00
1"
#157000000
b100000000000 )
0"
1%
#157200000
b1 X
1:
10
1"
#157400000
0"
#157600000
0:
00
1"
#157800000
0"
#158000000
b11 X
1:
10
1"
#158200000
0"
#158400000
0:
00
1"
#158600000
0"
#158800000
b111 X
1:
10
1"
#159000000
0"
#159200000
0:
00
1"
#159400000
0"
#159500000
0%
0#
b1011 \
#159600000
b110 X
1:
10
1"
#159800000
0"
#160000000
0:
00
1"
#160200000
0"
#160400000
1U
1S
b100 X
1:
10
1"
#160600000
0"
#160800000
0:
00
1"
#161000000
0"
#161200000
0U
0S
b100000000 W
b1011 Z
b0 X
1:
10
1"
#161400000
0"
#161600000
0:
00
1"
#161800000
0"
#162000000
b1 X
1:
10
b1000000000000 )
1"
1%
#162200000
0"
#162400000
0:
00
1"
#162600000
0"
#162800000
b11 X
1:
10
1"
#163000000
0"
#163200000
0:
00
1"
#163400000
0"
#163600000
b111 X
1:
10
1"
#163800000
0"
#164000000
0:
00
1"
#164200000
0"
#164400000
1:
10
1"
#164500000
0%
1#
b1100 \
#164600000
0"
#164800000
0:
00
1"
#165000000
0"
#165200000
b110 X
1:
10
1"
#165400000
0"
#165600000
0:
00
1"
#165800000
0"
#166000000
1U
1S
b100 X
1:
10
1"
#166200000
0"
#166400000
0:
00
1"
#166600000
0"
#166800000
0U
0S
b0 X
b1100 Z
b1000000000 W
1:
10
1"
#167000000
b10000000000000 )
0"
1%
#167200000
0:
00
1"
#167400000
0"
#167600000
b1 X
1:
10
1"
#167800000
0"
#168000000
0:
00
1"
#168200000
0"
#168400000
b11 X
1:
10
1"
#168600000
0"
#168800000
0:
00
1"
#169000000
0"
#169200000
b111 X
1:
10
1"
#169400000
0"
#169500000
0%
0#
b1101 \
#169600000
0:
00
1"
#169800000
0"
#170000000
b110 X
1:
10
1"
#170200000
0"
#170400000
0:
00
1"
#170600000
0"
#170800000
1U
1S
b100 X
1:
10
1"
#171000000
0"
#171200000
0:
00
1"
#171400000
0"
#171600000
0U
0S
b0 X
b1101 Z
b10000000000 W
1:
10
1"
#171800000
0"
#172000000
0:
00
b100000000000000 )
1"
1%
#172200000
0"
#172400000
b1 X
1:
10
1"
#172600000
0"
#172800000
0:
00
1"
#173000000
0"
#173200000
b11 X
1:
10
1"
#173400000
0"
#173600000
0:
00
1"
#173800000
0"
#174000000
b111 X
1:
10
1"
#174200000
0"
#174400000
0:
00
1"
#174500000
0%
1#
b1110 \
#174600000
0"
#174800000
b110 X
1:
10
1"
#175000000
0"
#175200000
0:
00
1"
#175400000
0"
#175600000
1U
1S
b100 X
1:
10
1"
#175800000
0"
#176000000
0:
00
1"
#176200000
0"
#176400000
0U
0S
1!
1-
b0 X
b1110 Z
b100000000000 W
1:
10
1"
#176600000
0"
#176800000
0:
00
1"
#177000000
b1000000000000001 )
0"
1%
#177200000
b1 X
1:
10
1"
#177400000
0"
#177600000
0:
00
1"
#177800000
0"
#178000000
b11 X
1:
10
1"
#178200000
0"
#178400000
0:
00
1"
#178600000
0"
#178800000
b111 X
1:
10
1"
#179000000
0"
#179200000
0:
00
1"
#179400000
0"
#179500000
0%
0#
b1111 \
#179600000
b110 X
1:
10
1"
#179800000
0"
#180000000
0:
00
1"
#180200000
0"
#180400000
1U
1S
b100 X
1:
10
1"
#180600000
0"
#180800000
0:
00
1"
#181000000
0"
#181200000
0U
0S
0!
0-
b0 X
b1111 Z
b0 W
1:
10
1"
#181400000
0"
#181600000
0:
00
1"
#181800000
0"
#182000000
b1 X
1:
10
b10 )
1"
1%
#182200000
0"
#182400000
0:
00
1"
#182600000
0"
#182800000
b11 X
1:
10
1"
#183000000
0"
#183200000
0:
00
1"
#183400000
0"
#183600000
b111 X
1:
10
1"
#183800000
0"
#184000000
0:
00
1"
#184200000
0"
#184400000
1:
10
1"
#184500000
0%
b10000 \
#184600000
0"
#184800000
0:
00
1"
#185000000
0"
#185200000
b110 X
1:
10
1"
#185400000
0"
#185600000
0:
00
1"
#185800000
0"
#186000000
1U
1S
b100 X
1:
10
1"
#186200000
0"
#186400000
0:
00
1"
#186600000
0"
#186800000
0U
0S
b0 Z
b0 X
1:
10
1"
#187000000
b10 $
0"
z!
1&
#187200000
0:
00
1"
#187400000
0"
#187600000
b1 Y
1:
10
1"
#187800000
0"
#188000000
0:
00
1"
#188200000
0"
#188400000
b11 Y
1:
10
1"
#188600000
0"
#188800000
0:
00
1"
#189000000
0"
#189200000
b111 Y
1:
10
1"
#189400000
0"
#189600000
0:
00
1"
#189800000
0"
